module gitea.com/polaris/reverse

go 1.16

require (
	gitea.com/lunny/log v0.0.0-20190322053110-01b5df579c4e
	github.com/ahl5esoft/golang-underscore v2.0.0+incompatible
	github.com/denisenkom/go-mssqldb v0.10.0
	github.com/go-sql-driver/mysql v1.6.0
	github.com/gobwas/glob v0.2.3
	github.com/lib/pq v1.10.2
	github.com/mattn/go-sqlite3 v1.14.9
	github.com/spf13/cobra v0.0.5
	github.com/stretchr/testify v1.7.0
	gopkg.in/yaml.v3 v3.0.0-20210107192922-496545a6307b
	xorm.io/xorm v1.2.4-0.20220107080401-cd36b112ae48
)
